…
``` r
rmse_tbl |>
  count(rmse_diff)
```

    # A tibble: 140 × 2
         rmse_diff     n
             <dbl> <int>
     1 -0.000110       1
     2 -0.0000427      1
     3 -0.0000291      1
     4 -0.0000270      1
     5 -0.0000103      1
     6 -0.00000655     1
     7 -0.00000540     1
     8 -0.00000521     1
     9 -0.00000331     1
    10 -0.00000298     1
    # ℹ 130 more rows
